<?xml version="1.0" encoding="UTF-8"?>
<session version="1.0">
<refactoring comment="Delete resource &apos;SpringIntro&apos;" deleteContents="true" description="Delete resource &apos;SpringIntro&apos;" element1="/SpringIntro" flags="7" id="org.eclipse.ltk.core.refactoring.delete.resources" resources="1" stamp="1657170541227"/>
</session>